{
  "$schema": "https://raw.githubusercontent.com/jsonresume/resume-schema/v1.0.0/schema.json",
  "basics": {
    "name": "Patrick BERTE",
    "label": "Développeur Web / CyberSécurité",
    "image": "https://media.licdn.com/dms/image/C4E03AQFnk4kIsOb2uA/profile-displayphoto-shrink_200_200/0/1651216093691?e=1680134400&v=beta&t=PXTRIiMXzuV5KZETGkFzqwIMtJhao2aIU8Qyhfud5dE",
    "email": "patrick.berte@laposte.net",
    "phone": "06 66 03 01 27",
    "url": "",
    "summary": "A propos de moi, je suis motivé, dynamique, autonome, rigoureux, curieux, et j'aime apprendre de nouvelles choses. Je suis passionné par l'informatique et la sécurité informatique. J'ai une expérience de 20 ans dans le domaine de l'informatique et de la sécurité. J'ai travaillé dans le domaine de la sûreté aéroportuaire pendant 16 ans.",
    "location": {
      "countryCode": "FR",
      "address": "Toulouse"
    },
    "profiles": [
      {
        "network": "LinkedIn",
        "username": "patrick-berte",
        "url": "https://www.linkedin.com/in/patrick-berte/"
      }
    ]
  }, 
  "work": [
    {
      "name": "SERIS France",
      "position": "Chef d'agence",
      "startDate": "2022-08",
      "endDate": "2022-12",
      "highlights": [
        "Encadrement et management des encadrants (chef d'équipe, chef de poste)",
        "Encadrement et management des collaborateurs de sûreté aéroportuaire",
        "Suivi de marché", 
        "Planification",
        "Gestion des dossiers de formation",
        "Etablissement de procédures",
        "Suivi des programmes de sûreté",
        "Suivi des programmes d'assurance qualité",
        "Suivi des programmes de formation"
      ],
      "url": "https://www.linkedin.com/company/seris-france/",
      "location": "Aéroport de Limoges-Bellegarde"
    },
    {
      "name": "SERIS France",
      "position": "Manager d'équipe SERIS France",
      "startDate": "2007-04-30",
      "endDate": "2021-07-17",
      "highlights": [
        "Supervision et gestion d'anomalies",        
        "Etablissement de rapports",        
        "Supervision du respect des consignes et procédures",
        "Travail collaboratif avec les Services compétent de l'état, chef d'escale pour un déroulement optimal",
        "Rédaction en temps réel par voie informatique des activités qui surviennent",
        "Gestion administrative liée à l'activité",
        " Accompagnement et formation des collaborateurs"        
      ],
      "url": "https://www.linkedin.com/company/seris-france/",
      "location": "Aéroport de Toulouse Blagnac"
    },
    {
      "name": "Adrar Digit@l Academy, Pôle Numérique de l'ADRAR",
      "position": "Développeur Web ",
      "startDate": "2021-07-31",
      "endDate": "2022-07-31",
      "highlights": [

      ],
      "url": "https://www.linkedin.com/school/adrarnumerique/",
      "location": "Toulouse, Occitanie, France"
    },
    {
      "name": "Webosity",
      "position": "Développeur web php",
      "startDate": "2022-04-30",
      "endDate": "2022-05-31",
      "highlights": [
        "Développement de scripts d'automatisation de tâches en PHP",
        "Mise en place de sites Wordpress",
        "Configuration des sites via de scripts automatisés créent en PHP",       
        "Manipulation de cURL et d'API"
      ],
      "url": "https://www.linkedin.com/company/webosity/",
      "location": "Colomiers, Occitanie, France"
    },
    {
      "name": "Gendarmerie Nationale",
      "position": "Technicien informatique",
      "startDate": "2004-03-31",
      "endDate": "2007-04-31",
      "highlights": [
        "Installation, maintenance du parc informatique (PC, Imprimantes, Gestion d'atelier entrées et  sorties matériels)", 
        "Installation, configuration réseau (switch, routeur, serveur, poste de travail) et maintenance du système réseau du département (972)",
        "Tuteur d'étudiants BTS informatique de gestion réseau"       
      ],
      "url": "https://www.linkedin.com/company/gendarmerie-nationale/",
      "location": "Martinique"
    },
    {
      "name": "Gendarmerie Nationale",
      "position": "Technicien informatique et télécommunication",
      "startDate": "2001-04-31",
      "endDate": "2004-03-31",
      "highlights": [
        "Installation, maintenance du parc informatique (PC, Imprimantes, Gestion d'atelier entrées et  sorties matériels)", 
        "Installation, configuration réseau (switch, routeur, serveur, poste de travail) et maintenance du système réseau du département (972)",
        "Intervention sur autocoms programmables, téléphones, fax, photocopieurs",
        "Installation et maintenance de système embarqué sur véhicule de la gendarmerie"       
      ],
      "url": "https://www.linkedin.com/company/gendarmerie-nationale/",
      "location": "Rennes"
    }
  ],
  "volunteer": [],
  "education": [
    {
      "institution": "Apformation",
      "area": "Concepteur d'applications web",
      "studyType": "Titre RNCP niveau 6 - Licence",
      "startDate": "2023-03-31",
      "endDate": "2024-09-04",
      "gpa": "",
      "courses": [],
      "url": "https://www.linkedin.com/company/ap-formation/"
    },
    {
      "institution": "Adrar Formation",
      "area": "Développeur web et web mobile",
      "studyType": "Titre RNCP niveau 5 - Bac+2",
      "startDate": "2021-07-15",
      "endDate": "2022-07-15",
      "gpa": "",
      "courses": [],
      "url": "https://www.linkedin.com/school/adrarnumerique/"
    },
    {
      "institution": "2 EASY - Blagnac",
      "area": "Espagnol",
      "studyType": "Test Bright Language",
      "startDate": "2021-03-01",
      "endDate": "2021-03-01",
      "gpa": "",
      "courses": [],
      "url": ""
    },
    {
      "institution": "2 EASY LANGUAGE INSTITUT - Blagnac",
      "area": "Anglais",
      "studyType": "ANGLAIS TOEIC",
      "startDate": "2017-12-01",
      "endDate": "2018-01-01",
      "gpa": "",
      "courses": [],
      "url": ""
    },      
    {
      "institution": "Coaching professionnel - Blagnac",
      "area": "Management",
      "studyType": "Certificat",
      "startDate": "2005-05-01",
      "endDate": "2005-05-31",
      "gpa": "",
      "courses": [],
      "url": ""
    },      
    {
      "institution": "Gendarmerie Nationale",
      "area": "Informatique",
      "studyType": "Agrément Technicien maintenance informatique (Niv - BTS)",
      "startDate": "2007-03-01",
      "endDate": "2001-03",
      "gpa": "",
      "courses": [],
      "url": ""
    },   
    {
      "institution": "Lycée technique du François",
      "area": "Electrotechnique",
      "studyType": "Bac Pro Electrotechnique",
      "startDate": "2000-09-01",
      "endDate": "2001-06-01",
      "gpa": "",
      "courses": [],
      "url": ""
    }    
  ],
  "awards": [],
  "certificates": [    
    {
      "title": "Certificat de compétences professionnelles",
      "date": "2007-03-01",
      "awarder": "Gendarmerie Nationale",
      "summary": "Technicien maintenance informatique et télécommunication"
    }   
  ],  
  "publications": [],
  "skills": [
    {
      "name": "Frontend",
      "level": "Junior",     
      "keywords": [
        "HTML",
        "CSS",
        "JavaScript",
        "VueJS",
        "Bootstrap"
      ]
      
    },
    {
      "name": "Backend",
      "level": "Junior",     
      "keywords": [
        "PHP",
        "MySQL",
        "Symfony4 - 5"           
      ]
      
    },
    {
      "name": "WordPress",
      "level": "Junior",
      "keywords": [
        "Wordpress",
        "Thème",
        "Plugin",
        "WooCommerce" ,
        "scripts"     
      ]
    },   
    {
      "name": "Langage de modélisation unifié (UML)",
      "level": "",
      "keywords": [        
        "Diagramme de cas d’utilisation",
        "Diagramme d'activité",
        "Diagramme de séquence",
        "Diagramme de classe"
      ]
    },
    {
      "name": "Conception web",
      "level": "",
      "keywords": [
        "UX",
        "UI",
        "Wireframe",
        "Mockup",
        "Prototype",
        "Design",
        "Responsive",
        "Mobile",
        "Web",
        "SEO"
      ]
    },       
    {
      "name": "Cadre de travail",
      "level": "",
      "keywords": [
        "Git",
        "Visual Studio Code",
        "PhpStorm",
        "Xampp",
        "Wamp",
        "StarUML",
        "Jmerise"
      ]
    },    
    {
      "name": "Microsoft Office",
      "level": "",
      "keywords": [
        "Word",
        "Excel",
        "PowerPoint",
        "Outlook"      
      ]
    },
    {
      "name": "Technicien informatique",
      "level": "",
      "keywords": []
    },
    {
      "name": "Technicien réseau",
      "level": "",
      "keywords": []
    },
    {
      "name": "Technicien en télécommunication",
      "level": "",
      "keywords": []
    },
    {
      "name": "Gestion d’équipe",
      "level": "",
      "keywords": []
    },
    {
      "name": "Formation",
      "level": "",
      "keywords": []
    },
    {
      "name": "Communication",
      "level": "",
      "keywords": []
    },        
    {
      "name": "Leadership",
      "level": "",
      "keywords": []
    },
    {
      "name": "Management",
      "level": "",
      "keywords": []
    }
  ],
  "languages": [
    {
      "language": "fr",
      "fluency": "Native Speaker"
    }
  ],
  "interests": [ 
    {
      "name": "Veille technologique",
      "keywords": []
    },
    {
      "name": "Betâ testeur nouvelles technologies",
      "keywords": []
    },
    {
      "name": "Cinéma",
      "keywords": []
    },
    {
      "name": "Voyages",
      "keywords": []
    },
    {
      "name": "Animateur Dj",
      "keywords": []
    },
    {
      "name": "Capoeira (20 ans)",
      "keywords": []
    }      
  ],
  "references": [],
  "projects": [],
  "meta": {
    "version": "v1.0.0",
    "canonical": "https://github.com/jsonresume/resume-schema/blob/v1.0.0/schema.json"
  }
}